<svg width="16" height="16" viewBox="0 0 16 16" fill="none" xmlns="http://www.w3.org/2000/svg">
<path d="M8 15C11.866 15 15 11.866 15 8.00001C15 4.13401 11.866 1 8 1C4.13401 1 1 4.13401 1 8.00001C1 11.866 4.13401 15 8 15Z" stroke="white" stroke-width="2" stroke-linecap="round" stroke-linejoin="round"/>
<path d="M8 4.6684V8.00002H11.2853" stroke="white" stroke-width="2" stroke-linecap="round" stroke-linejoin="round"/>
</svg>
