<svg width="24" height="25" viewBox="0 0 24 25" fill="none" xmlns="http://www.w3.org/2000/svg">
<g clip-path="url(#clip0)">
<path d="M1.37451 13.3236C1.37451 18.9739 6.04771 23.5543 11.8124 23.5543C17.5771 23.5543 22.2503 18.9739 22.2503 13.3236C22.2503 7.67325 17.5771 3.09277 11.8124 3.09277C9.00907 3.09277 6.46387 4.17596 4.58867 5.93863" stroke="#FCF18C" stroke-width="2.5" stroke-linecap="round" stroke-linejoin="round"/>
<path d="M11.813 8.45459V13.3239H16.7118" stroke="#FCF18C" stroke-width="2.5" stroke-linecap="round" stroke-linejoin="round"/>
<path d="M3 2.81641V7.81641H8" stroke="#FCF18C" stroke-width="2.5" stroke-linecap="round" stroke-linejoin="round"/>
</g>
<defs>
<clipPath id="clip0">
<rect width="24" height="24" fill="white" transform="translate(0 0.816406)"/>
</clipPath>
</defs>
</svg>
