<svg width="10" height="11" viewBox="0 0 10 11" fill="none" xmlns="http://www.w3.org/2000/svg">
<path d="M8.77817 1.81641L4.88909 5.70549M4.88909 5.70549L1 9.59458M4.88909 5.70549L8.77817 9.59458M4.88909 5.70549L1 1.81641" stroke="#4ABBC1" stroke-width="2" stroke-linecap="round"/>
</svg>
