<svg width="11" height="13" viewBox="0 0 11 13" fill="none" xmlns="http://www.w3.org/2000/svg">
<circle cx="5.18842" cy="3.27826" r="2.27826" stroke="#4ABBC1" stroke-width="2" stroke-linecap="round" stroke-linejoin="round"/>
<path d="M1 11.3264V9.74525C1 7.43188 2.87536 5.55652 5.18873 5.55652C7.50211 5.55652 9.37746 7.43188 9.37746 9.74525V11.3264" stroke="#4ABBC1" stroke-width="2" stroke-linecap="round" stroke-linejoin="round"/>
</svg>
