<svg width="14" height="24" viewBox="0 0 14 24" fill="none" xmlns="http://www.w3.org/2000/svg">
<path d="M2 1.81641L12 11.8164L2 21.8164" stroke="#4ABBC1" stroke-width="3" stroke-linecap="round" stroke-linejoin="round"/>
</svg>
